{
    "success": true,
    "data": {
        "content": [
            {
                "id": 98,
                "deleted": false,
                "gmtCreate": "2018-04-28 10:41:34",
                "gmtModified": "2018-05-14 19:21:26",
                "title": "普通人如何通过抖音红利实现月入3万",
                "subTitle": "0基础手把手教你做个能赚钱的抖音号",
                "lateralCover": "https://yun.dui88.com/youfen/images/adn8xwzfv1.jpg",
                "verticalCover": "",
                "price": 10000,
                "distributorIncome": 195,
                "distributeRate": 160,
                "lecturerIncome": 185,
                "status": 1,
                "rate": 4000,
                "lecturerId": 8,
                "courseNum": 3,
                "buyTimes": 10,
                "courseRelated": 3
            },
            {
                "id": 97,
                "deleted": false,
                "gmtCreate": "2018-04-27 13:56:34",
                "gmtModified": "2018-04-27 17:26:22",
                "title": "专栏关联111",
                "subTitle": "专栏关联111",
                "lateralCover": "",
                "verticalCover": "",
                "price": 300,
                "status": 1,
                "rate": 300,
                "lecturerId": 102,
                "courseNum": 100,
                "buyTimes": 1,
                "courseRelated": 7
            },
            {
                "id": 96,
                "deleted": false,
                "gmtCreate": "2018-04-27 11:13:00",
                "gmtModified": "2018-04-27 11:17:32",
                "title": "专栏-关联",
                "subTitle": "专栏-关联",
                "lateralCover": "",
                "verticalCover": "",
                "price": 100,
                "status": 1,
                "rate": 100,
                "lecturerId": 9,
                "courseNum": 3,
                "buyTimes": 1,
                "courseRelated": 3
            },
            {
                "id": 95,
                "deleted": false,
                "gmtCreate": "2018-04-27 09:50:39",
                "gmtModified": "2018-04-27 15:40:26",
                "title": "34",
                "subTitle": "34",
                "lateralCover": "",
                "verticalCover": "",
                "price": 200,
                "status": 1,
                "rate": 200,
                "lecturerId": 9,
                "courseNum": 2,
                "buyTimes": 0,
                "courseRelated": 2
            },
            {
                "id": 94,
                "deleted": false,
                "gmtCreate": "2018-04-27 09:50:13",
                "gmtModified": "2018-04-27 18:06:10",
                "title": "23",
                "subTitle": "123",
                "lateralCover": "https://yun.dui88.com/youfen/images/xvv3y3gsuu.png",
                "verticalCover": "",
                "price": 100,
                "status": 1,
                "rate": 100,
                "lecturerId": 9,
                "courseNum": 10,
                "buyTimes": 1,
                "courseRelated": 10
            },
            {
                "id": 93,
                "deleted": false,
                "gmtCreate": "2018-04-27 09:43:15",
                "gmtModified": "2018-04-27 09:43:18",
                "title": "12",
                "subTitle": "12",
                "lateralCover": "",
                "verticalCover": "",
                "price": 1200,
                "status": 1,
                "rate": 1200,
                "courseNum": 1,
                "buyTimes": 0,
                "courseRelated": 0
            },
            {
                "id": 92,
                "deleted": false,
                "gmtCreate": "2018-04-25 12:01:24",
                "gmtModified": "2018-04-26 21:05:45",
                "title": "专栏-价格11",
                "subTitle": "专栏-价格11",
                "lateralCover": "",
                "verticalCover": "",
                "price": 300,
                "status": 1,
                "rate": 300,
                "lecturerId": 102,
                "courseNum": 3,
                "buyTimes": 0,
                "courseRelated": 1
            },
            {
                "id": 91,
                "deleted": false,
                "gmtCreate": "2018-04-25 12:00:59",
                "gmtModified": "2018-04-25 12:01:43",
                "title": "专栏-价格展示",
                "subTitle": "专栏-价格展示",
                "lateralCover": "",
                "verticalCover": "",
                "price": 1,
                "status": 1,
                "rate": 1,
                "lecturerId": 102,
                "courseNum": 1,
                "buyTimes": 0,
                "courseRelated": 0
            },
            {
                "id": 90,
                "deleted": false,
                "gmtCreate": "2018-04-25 10:57:03",
                "gmtModified": "2018-04-26 16:56:27",
                "title": "专栏-全部试看",
                "subTitle": "专栏-全部试看",
                "lateralCover": "",
                "verticalCover": "",
                "price": 99900,
                "status": 1,
                "rate": 99,
                "lecturerId": 102,
                "courseNum": 3,
                "buyTimes": 0,
                "courseRelated": 3
            },
            {
                "id": 89,
                "deleted": false,
                "gmtCreate": "2018-04-25 10:55:54",
                "gmtModified": "2018-04-27 18:35:42",
                "title": "专栏-中间试看",
                "subTitle": "专栏-中间试看-副标",
                "lateralCover": "",
                "verticalCover": "",
                "price": 1,
                "status": 1,
                "rate": 8,
                "lecturerId": 102,
                "courseNum": 3,
                "buyTimes": 2,
                "courseRelated": 3
            }
        ],
        "totalPages": 9,
        "numberOfElements": 10,
        "firstPage": true,
        "lastPage": false,
        "totalElements": 86,
        "size": 10,
        "number": 0
    }
}