{
    "success": true,
    "data": {
        "content": [
            {
                "id": 196,
                "deleted": false,
                "gmtCreate": "2018-04-28 11:52:10",
                "gmtModified": "2018-05-15 16:25:41",
                "title": "人性的弱点",
                "subTitle": "人性的弱点",
                "courseType": 1,
                "lateralCover": "",
                "verticalCover": "",
                "price": 20000,
                "distributorIncome": 195,
                "distributeRate": 160,
                "lecturerIncome": 185,
                "status": 1,
                "address": "{\"name\":\"脱单试听课.mp3\",\"url\":\"knowledge/1524887363947\"}",
                "timeLength": 291,
                "freeTime": 120,
                "rate": 0,
                "lecturerId": 8,
                "publishTime": "2018-04-25 12:00:00",
                "playTimes": 21,
                "buyTimes": 0
            },
            {
                "id": 195,
                "deleted": false,
                "gmtCreate": "2018-04-28 11:49:04",
                "gmtModified": "2018-05-15 19:23:27",
                "title": "温暖的孩子",
                "subTitle": "温暖的孩子",
                "courseType": 1,
                "lateralCover": "",
                "verticalCover": "https://yun.dui88.com/youfen/images/hz92c2l0xn.jpg",
                "price": 0,
                "status": 1,
                "address": "{\"name\":\"脱单试听课.mp3\",\"url\":\"knowledge/1524887264989\"}",
                "timeLength": 291,
                "freeTime": 120,
                "rate": 0,
                "lecturerId": 8,
                "publishTime": "2018-04-24 12:00:00",
                "playTimes": 48,
                "buyTimes": 0
            },
            {
                "id": 194,
                "deleted": false,
                "gmtCreate": "2018-04-28 11:42:38",
                "gmtModified": "2018-05-15 20:51:57",
                "title": "高效能人士的七个习惯",
                "subTitle": "高效能人士的七个习惯",
                "courseType": 1,
                "lateralCover": "",
                "verticalCover": "https://yun.dui88.com/youfen/images/d2zwhgr0u0.jpg",
                "price": 10,
                "status": 1,
                "address": "{\"name\":\"脱单试听课.mp3\",\"url\":\"knowledge/1524886575991\"}",
                "timeLength": 291,
                "freeTime": 0,
                "rate": 1000,
                "lecturerId": 8,
                "publishTime": "2018-04-17 12:00:00",
                "playTimes": 9,
                "buyTimes": 1
            },
            {
                "id": 193,
                "deleted": false,
                "gmtCreate": "2018-04-28 10:49:09",
                "gmtModified": "2018-05-15 20:52:24",
                "title": "《让大脑自由》12条定律，让大脑更好地为你工作",
                "subTitle": "《让大脑自由》12条定律，让大脑更好地为你工作",
                "courseType": 1,
                "lateralCover": "",
                "verticalCover": "",
                "price": 1,
                "status": 1,
                "address": "{\"name\":\"脱单试听课.mp3\",\"url\":\"knowledge/1524883733962\"}",
                "timeLength": 291,
                "freeTime": 120,
                "rate": 1000,
                "lecturerId": 8,
                "publishTime": "2018-04-17 12:00:00",
                "playTimes": 187,
                "buyTimes": 0
            },
            {
                "id": 192,
                "deleted": false,
                "gmtCreate": "2018-04-28 10:47:46",
                "gmtModified": "2018-05-15 20:52:17",
                "title": "解忧杂货铺",
                "subTitle": "《温暖的孩子》从专业行为学和心理学了解孩子",
                "courseType": 1,
                "lateralCover": "https://yun.dui88.com/youfen/images/q04o9s5ry9.png",
                "verticalCover": "https://yun.dui88.com/youfen/images/vdjzasqc6y.jpg",
                "price": 1,
                "status": 1,
                "address": "{\"name\":\"脱单试听课.mp3\",\"url\":\"knowledge/1524883625386\"}",
                "timeLength": 291,
                "freeTime": 120,
                "rate": 1000,
                "lecturerId": 8,
                "publishTime": "2018-04-17 12:00:00",
                "playTimes": 307,
                "buyTimes": 0
            },
            {
                "id": 191,
                "deleted": false,
                "gmtCreate": "2018-04-28 10:44:39",
                "gmtModified": "2018-05-15 20:52:25",
                "title": "《反脆弱》这个时代的终极生活指南",
                "subTitle": "《反脆弱》这个时代的终极生活指南",
                "courseType": 1,
                "lateralCover": "https://yun.dui88.com/youfen/images/2p0qmjvs8c.png",
                "verticalCover": "",
                "price": 1,
                "status": 1,
                "address": "{\"name\":\"脱单试听课.mp3\",\"url\":\"knowledge/1524883369324\"}",
                "timeLength": 291,
                "freeTime": 120,
                "rate": 1000,
                "lecturerId": 8,
                "publishTime": "2018-04-24 12:00:00",
                "playTimes": 292,
                "buyTimes": 0
            },
            {
                "id": 190,
                "deleted": false,
                "gmtCreate": "2018-04-28 10:17:56",
                "gmtModified": "2018-04-28 10:18:39",
                "title": "3周激减12斤，吃饱了一样瘦",
                "subTitle": "3周激减12斤，吃饱了一样瘦",
                "courseType": 1,
                "lateralCover": "https://yun.dui88.com/youfen/images/vhd8sknbxb.png",
                "verticalCover": "",
                "price": 1,
                "status": 1,
                "address": "{\"name\":\"脱单试听课.mp3\",\"url\":\"knowledge/1524881798971\"}",
                "timeLength": 291,
                "freeTime": 120,
                "rate": 1000,
                "lecturerId": 9,
                "publishTime": "2018-04-17 12:00:00",
                "playTimes": 0,
                "buyTimes": 0
            },
            {
                "id": 189,
                "deleted": false,
                "gmtCreate": "2018-04-28 10:06:57",
                "gmtModified": "2018-05-14 16:02:00",
                "title": "课程测试-时长",
                "subTitle": "课程测试-时长",
                "courseType": 1,
                "lateralCover": "",
                "verticalCover": "",
                "price": 100,
                "status": 2,
                "address": "{\"name\":\"陈小春-独家记忆.mp3\",\"url\":\"knowledge/1524880386727\"}",
                "timeLength": 307,
                "freeTime": 120,
                "rate": 100,
                "lecturerId": 102,
                "publishTime": "2018-04-30 12:00:00",
                "playTimes": 0,
                "buyTimes": 0
            },
            {
                "id": 188,
                "deleted": false,
                "gmtCreate": "2018-04-27 20:30:28",
                "gmtModified": "2018-05-07 10:12:43",
                "title": "5本书，告诉你自我提升的正确姿势",
                "subTitle": "5本书，告诉你自我提升的正确姿势",
                "courseType": 1,
                "lateralCover": "",
                "verticalCover": "",
                "price": 0,
                "status": 1,
                "address": "{\"name\":\"脱单试听课.mp3\",\"url\":\"knowledge/1524832212447\"}",
                "timeLength": 291,
                "freeTime": 120,
                "rate": 0,
                "lecturerId": 8,
                "publishTime": "2018-04-17 12:00:00",
                "playTimes": 89,
                "buyTimes": 0
            },
            {
                "id": 187,
                "deleted": false,
                "gmtCreate": "2018-04-27 20:29:31",
                "gmtModified": "2018-05-16 09:50:10",
                "title": "5本书，告诉你自我提升的正确姿势",
                "subTitle": "5本书，告诉你自我提升的正确姿势",
                "courseType": 1,
                "lateralCover": "",
                "verticalCover": "",
                "price": 0,
                "status": 1,
                "address": "{\"name\":\"脱单试听课.mp3\",\"url\":\"knowledge/1524832129067\"}",
                "timeLength": 291,
                "freeTime": 120,
                "rate": 0,
                "lecturerId": 9,
                "publishTime": "2018-04-18 12:00:00",
                "playTimes": 123,
                "buyTimes": 0
            },
            {
                "id": 186,
                "deleted": false,
                "gmtCreate": "2018-04-27 20:28:45",
                "gmtModified": "2018-05-15 20:52:32",
                "title": "大咖领读全球畅销书TOP5",
                "subTitle": "大咖领读全球畅销书TOP5",
                "courseType": 1,
                "lateralCover": "",
                "verticalCover": "",
                "price": 0,
                "status": 1,
                "address": "{\"name\":\"脱单试听课.mp3\",\"url\":\"knowledge/1524832083153\"}",
                "timeLength": 291,
                "freeTime": 120,
                "rate": 0,
                "lecturerId": 9,
                "publishTime": "2018-04-05 12:00:00",
                "playTimes": 239,
                "buyTimes": 0
            },
            {
                "id": 185,
                "deleted": false,
                "gmtCreate": "2018-04-27 20:22:18",
                "gmtModified": "2018-05-15 21:44:36",
                "title": "聊天时多叫名字，你们的关系会快速密切",
                "subTitle": "聊天时多叫名字，你们的关系会快速密切",
                "courseType": 1,
                "lateralCover": "https://yun.dui88.com/youfen/images/cexj17cqq8.jpg",
                "verticalCover": "https://yun.dui88.com/youfen/images/ngbmo3u78s.jpg",
                "price": 1,
                "status": 1,
                "address": "{\"name\":\"脱单试听课.mp3\",\"url\":\"knowledge/1524831672131\"}",
                "timeLength": 291,
                "freeTime": 120,
                "rate": 3000,
                "lecturerId": 11,
                "publishTime": "2018-04-16 12:00:00",
                "playTimes": 105,
                "buyTimes": 5
            },
            {
                "id": 184,
                "deleted": false,
                "gmtCreate": "2018-04-27 20:20:11",
                "gmtModified": "2018-05-09 15:00:00",
                "title": "5本书，告诉你自我提升的正确姿势",
                "subTitle": "5本书，告诉你自我提升的正确姿势",
                "courseType": 1,
                "lateralCover": "https://yun.dui88.com/youfen/images/n5oqglxq2c.jpg",
                "verticalCover": "https://yun.dui88.com/youfen/images/2b3q1hdxlp.jpg",
                "price": 1,
                "status": 1,
                "address": "{\"name\":\"脱单试听课.mp3\",\"url\":\"knowledge/1524831512997\"}",
                "timeLength": 291,
                "freeTime": 120,
                "rate": 4000,
                "lecturerId": 7,
                "publishTime": "2018-04-24 12:00:00",
                "playTimes": 92,
                "buyTimes": 2
            },
            {
                "id": 183,
                "deleted": false,
                "gmtCreate": "2018-04-27 20:18:28",
                "gmtModified": "2018-05-15 20:58:19",
                "title": "10招修炼成“狐狸精”女人",
                "subTitle": "10招修炼成“狐狸精”女人",
                "courseType": 1,
                "lateralCover": "https://yun.dui88.com/youfen/images/4o0oz55o4c.png",
                "verticalCover": "https://yun.dui88.com/youfen/images/gy55ivztgq.jpg",
                "price": 1,
                "status": 1,
                "address": "{\"name\":\"脱单试听课.mp3\",\"url\":\"knowledge/1524887097560\"}",
                "timeLength": 291,
                "freeTime": 120,
                "rate": 5000,
                "lecturerId": 2,
                "publishTime": "2018-04-26 12:00:00",
                "playTimes": 193,
                "buyTimes": 5
            },
            {
                "id": 182,
                "deleted": false,
                "gmtCreate": "2018-04-27 19:41:36",
                "gmtModified": "2018-05-15 20:40:23",
                "title": "恋爱读心术",
                "subTitle": "恋爱读心术，读懂你的心",
                "courseType": 1,
                "lateralCover": "https://yun.dui88.com/youfen/images/6qp1ptogyj.png",
                "verticalCover": "https://yun.dui88.com/youfen/images/xpuf8ilsx2.jpg",
                "price": 1,
                "status": 1,
                "address": "{\"name\":\"脱单试听课.mp3\",\"url\":\"knowledge/1524829146566\"}",
                "timeLength": 291,
                "freeTime": 120,
                "rate": 5000,
                "lecturerId": 2,
                "publishTime": "2018-04-26 12:00:00",
                "playTimes": 474,
                "buyTimes": 6
            },
            {
                "id": 181,
                "deleted": false,
                "gmtCreate": "2018-04-27 17:23:29",
                "gmtModified": "2018-04-27 17:26:58",
                "title": "1",
                "subTitle": "1",
                "courseType": 1,
                "lateralCover": "",
                "verticalCover": "",
                "price": 100,
                "status": 1,
                "address": "{\"name\":\"安静.m4a\",\"url\":\"knowledge/1524820989566\"}",
                "timeLength": 192,
                "freeTime": 120,
                "rate": 100,
                "lecturerId": 102,
                "publishTime": "2018-04-30 12:00:00",
                "playTimes": 0,
                "buyTimes": 0
            },
            {
                "id": 176,
                "deleted": false,
                "gmtCreate": "2018-04-27 13:55:21",
                "gmtModified": "2018-05-15 20:16:42",
                "title": "课程测试333",
                "subTitle": "课程测试333",
                "courseType": 1,
                "lateralCover": "",
                "verticalCover": "",
                "price": 200,
                "status": 1,
                "address": "{\"name\":\"Alan Walker - Faded.mp3\",\"url\":\"knowledge/1524808457912\"}",
                "timeLength": 307,
                "freeTime": 120,
                "rate": 200,
                "lecturerId": 102,
                "publishTime": "2018-04-30 12:00:00",
                "playTimes": 18,
                "buyTimes": 1
            },
            {
                "id": 175,
                "deleted": false,
                "gmtCreate": "2018-04-27 13:54:48",
                "gmtModified": "2018-04-27 17:28:57",
                "title": "课程测试222",
                "subTitle": "课程测试222",
                "courseType": 1,
                "lateralCover": "",
                "verticalCover": "",
                "price": 100,
                "status": 1,
                "address": "{\"name\":\"陈小春-独家记忆.mp3\",\"url\":\"knowledge/1524808457912\"}",
                "timeLength": 307,
                "freeTime": 120,
                "rate": 100,
                "lecturerId": 102,
                "publishTime": "2018-04-30 12:00:00",
                "playTimes": 1,
                "buyTimes": 0
            },
            {
                "id": 174,
                "deleted": false,
                "gmtCreate": "2018-04-27 13:54:14",
                "gmtModified": "2018-04-27 17:27:53",
                "title": "课程测试111",
                "subTitle": "课程测试111",
                "courseType": 1,
                "lateralCover": "",
                "verticalCover": "",
                "price": 100,
                "status": 0,
                "address": "{\"name\":\"Alan Walker - Faded.mp3\",\"url\":\"knowledge/1524808415419\"}",
                "timeLength": 213,
                "freeTime": 120,
                "rate": 100,
                "lecturerId": 102,
                "publishTime": "2018-04-30 12:00:00",
                "playTimes": 0,
                "buyTimes": 0
            },
            {
                "id": 173,
                "deleted": false,
                "gmtCreate": "2018-04-26 16:51:35",
                "gmtModified": "2018-04-26 16:51:35",
                "title": "课程价格m",
                "subTitle": "课程价格m",
                "courseType": 1,
                "lateralCover": "",
                "verticalCover": "",
                "price": 9999,
                "status": 0,
                "address": "{\"name\":\"Alan Walker - Faded.mp3\",\"url\":\"knowledge/1524732597785\"}",
                "timeLength": 213,
                "freeTime": 120,
                "rate": 99,
                "lecturerId": 2,
                "publishTime": "2018-04-25 12:00:00",
                "playTimes": 0,
                "buyTimes": 0
            }
        ],
        "totalPages": 7,
        "numberOfElements": 20,
        "firstPage": true,
        "lastPage": false,
        "totalElements": 135,
        "size": 20,
        "number": 0
    }
}