{
  "success": true,
  "data": {
    "content": [
      {
        "coupon": 1,
        "receiveTime": "2018.6.1",
        "parentEditionId": 1,
        "parentEditionTitle": "六一大放送",
        "money": "19.9元",
        "effectiveDate": "2018.7.1",
        "activityId": "1",
        "userId": 1,
        "useTime": "2018.6.1",
        "orderId": 1,
        "status": 1
      }
    ],
    "totalPages": 7,
    "numberOfElements": 20,
    "firstPage": true,
    "lastPage": false,
    "totalElements": 135,
    "size": 20,
    "number": 0
  }
}